…
    ## Warning: glm.fit: fitted probabilities numerically 0 or 1 occurred

    ## Warning: glm.fit: fitted probabilities numerically 0 or 1 occurred

    ## Warning: glm.fit: fitted probabilities numerically 0 or 1 occurred

    ## Warning: glm.fit: fitted probabilities numerically 0 or 1 occurred

    ## Warning: glm.fit: fitted probabilities numerically 0 or 1 occurred

    ## Warning: glm.fit: fitted probabilities numerically 0 or 1 occurred

    ## Warning: glm.fit: fitted probabilities numerically 0 or 1 occurred

    ## # A tibble: 47 x 11
    ##    city_state term  estimate std.error statistic p.value conf.low conf.high
    ##    <chr>      <chr>    <dbl>     <dbl>     <dbl>   <dbl>    <dbl>     <dbl>
    ##  1 Albuquerq… vict…  -0.377      0.253    -1.49  1.37e-1   -0.877    0.117 
    ##  2 Atlanta, … vict…  -0.266      0.283    -0.939 3.48e-1   -0.837    0.278 
    ##  3 Baltimore… vict…  -0.793      0.174    -4.55  5.33e-6   -1.14    -0.453 
    ##  4 Baton Rou… vict…  -0.422      0.387    -1.09  2.75e-1   -1.21     0.322 
    ##  5 Birmingha… vict…   0.0460     0.265     0.174 8.62e-1   -0.479    0.565 
    ##  6 Boston, MA vict…  -2.12       0.453    -4.67  2.94e-6   -3.11    -1.30  
    ##  7 Buffalo, … vict…  -0.804      0.306    -2.63  8.63e-3   -1.42    -0.209 
    ##  8 Charlotte… vict…  -0.589      0.273    -2.16  3.11e-2   -1.15    -0.0716
    ##  9 Chicago, … vict…  -0.553      0.135    -4.09  4.32e-5   -0.817   -0.286 
    ## 10 Cincinnat… vict…  -1.12       0.278    -4.02  5.70e-5   -1.68    -0.591 
    ## # … with 37 more rows, and 3 more variables: OR <dbl>, lower_bound <dbl>,
    ## #   upper_bound <dbl>
…
